{
  "project_info": {
    "project_number": "961204536542",
    "firebase_url": "https://akidemic-life.firebaseio.com",
    "project_id": "akidemic-life",
    "storage_bucket": "akidemic-life.appspot.com"
  },
  "client": [
    {
      "client_info": {
        "mobilesdk_app_id": "1:961204536542:android:b8313b764e6e9a7a3a6e4f",
        "android_client_info": {
          "package_name": "com.sst.akidemiclife"
        }
      },
      "oauth_client": [
        {
          "client_id": "961204536542-3moiteb9k8b9h1p0l34inao1o3ktgqjt.apps.googleusercontent.com",
          "client_type": 1,
          "android_info": {
            "package_name": "com.sst.akidemiclife",
            "certificate_hash": "bc3d367723a0374e1f7176b9c66704add614f2f5"
          }
        },
        {
          "client_id": "961204536542-hcfvocsltb2u0lsvinmevdq0nlnl7dde.apps.googleusercontent.com",
          "client_type": 3
        }
      ],
      "api_key": [
        {
          "current_key": "AIzaSyCc1yJLvjwnPvT6enxlkjuJgiBXGVCcKMw"
        }
      ],
      "services": {
        "appinvite_service": {
          "other_platform_oauth_client": [
            {
              "client_id": "961204536542-hcfvocsltb2u0lsvinmevdq0nlnl7dde.apps.googleusercontent.com",
              "client_type": 3
            },
            {
              "client_id": "961204536542-n23hdlh2uvcljr3jm2okrvjb00s85873.apps.googleusercontent.com",
              "client_type": 2,
              "ios_info": {
                "bundle_id": "app.demo.akidemicLife"
              }
            }
          ]
        }
      }
    }
  ],
  "configuration_version": "1"
}